module newspopper

go 1.13

require (
	github.com/PuerkitoBio/goquery v1.5.1
	github.com/antchfx/htmlquery v1.2.3 // indirect
	github.com/antchfx/xmlquery v1.2.4 // indirect
	github.com/demget/telebot v0.0.0-20200110183911-13d3788fe6e0
	github.com/go-redis/redis v6.15.7+incompatible
	github.com/go-telegram-bot-api/telegram-bot-api v4.6.4+incompatible // indirect
	github.com/go-yaml/yaml v2.1.0+incompatible
	github.com/gobwas/glob v0.2.3 // indirect
	github.com/gocolly/colly v1.2.0 // indirect
	github.com/kennygrant/sanitize v1.2.4 // indirect
	github.com/konsorten/go-windows-terminal-sequences v1.0.2 // indirect
	github.com/saintfish/chardet v0.0.0-20120816061221-3af4cd4741ca // indirect
	github.com/sirupsen/logrus v1.5.0
	github.com/subosito/gotenv v1.2.0
	github.com/technoweenie/multipartstreamer v1.0.1 // indirect
	github.com/temoto/robotstxt v1.1.1 // indirect
	golang.org/x/sys v0.0.0-20200420163511-1957bb5e6d1f // indirect
	google.golang.org/appengine v1.6.6 // indirect
)
